<svg width="30" height="30" viewBox="0 0 30 30" fill="none" xmlns="http://www.w3.org/2000/svg">
<path d="M23 22V5.96875L6.96875 22H23ZM8 8V9.96875H14V8H8ZM23 4C23.5312 4 23.9844 4.20312 24.3594 4.60938C24.7656 4.98438 24.9688 5.4375 24.9688 5.96875V22C24.9688 22.5312 24.7656 23 24.3594 23.4062C23.9844 23.7812 23.5312 23.9688 23 23.9688H6.96875C6.4375 23.9688 5.96875 23.7812 5.5625 23.4062C5.1875 23 5 22.5312 5 22V5.96875C5 5.4375 5.1875 4.98438 5.5625 4.60938C5.96875 4.20312 6.4375 4 6.96875 4H23ZM16.9844 18H14.9688V15.9844H16.9844V13.9688H19V15.9844H20.9688V18H19V19.9688H16.9844V18Z" fill="#999999"/>
</svg>
