<svg width="30" height="30" viewBox="0 0 30 30" fill="none" xmlns="http://www.w3.org/2000/svg">
<path fill-rule="evenodd" clip-rule="evenodd" d="M22.2746 4.0331C23.8584 4.25964 25.0759 5.62172 25.0759 7.26816C25.0759 7.42668 25.0646 7.58256 25.0428 7.73504C24.9904 7.73504 24.9477 7.77714 24.947 7.82953L24.7573 21.537C24.7423 22.627 23.8571 23.5041 22.767 23.5093L7.00953 23.5842C5.90126 23.5895 5.00003 22.6925 5.00003 21.5842L5 9.13569C5 8.36213 5.62709 7.73504 6.40064 7.73504C6.61594 9.6827 8.18804 11.2548 10.1357 11.4701H22.2746V10.5363H22.2489V10.5032C20.8176 10.2985 19.6855 9.16636 19.4807 7.73504H18.5869C18.7117 8.86396 19.2678 9.85809 20.0926 10.5363H10.1357C8.70437 10.3316 7.54658 9.16635 7.34185 7.73504H7.3675C7.34568 7.58256 7.3344 7.42668 7.3344 7.26816C7.3344 5.46321 8.79761 4 10.6026 4C10.7611 4 10.917 4.01129 11.0694 4.0331V4H22.2746V4.0331ZM24.0954 7.73504C24.126 7.58419 24.1421 7.42805 24.1421 7.26816C24.1421 6.1388 23.3401 5.19676 22.2746 4.98047C22.1237 4.94985 21.9676 4.93376 21.8077 4.93376C20.5184 4.93376 19.4733 5.97891 19.4733 7.26816C19.4733 7.42805 19.4894 7.58419 19.52 7.73504H24.0954ZM10.1358 5.40077C10.1358 5.14292 10.3448 4.93389 10.6027 4.93389H18.0728C18.3306 4.93389 18.5396 5.14292 18.5396 5.40077C18.5396 5.65862 18.3306 5.86765 18.0728 5.86765H10.6027C10.3448 5.86765 10.1358 5.65862 10.1358 5.40077ZM8.26826 7.26829C8.26826 7.01044 8.47729 6.80141 8.73514 6.80141H16.2052C16.4631 6.80141 16.6721 7.01044 16.6721 7.26829C16.6721 7.52614 16.4631 7.73517 16.2052 7.73517H8.73514C8.47729 7.73517 8.26826 7.52614 8.26826 7.26829ZM7.23022 13H22.2302V16H7.23022V13ZM7.23022 18H10.2302V21H7.23022V18ZM14.2302 18H11.2302V21H14.2302V18ZM15.2302 18H18.2302V21H15.2302V18ZM22.2302 18H19.2302V21H22.2302V18Z" fill="#999999"/>
</svg>
