<svg width="30" height="30" viewBox="0 0 30 30" fill="none" xmlns="http://www.w3.org/2000/svg">
<path d="M21.0156 18.5L23.0312 20.5156V21.5H7V20.5156L9.01562 18.5V13.5312C9.01562 11.9688 9.40625 10.6094 10.1875 9.45312C11 8.29688 12.1094 7.54688 13.5156 7.20312V6.5C13.5156 6.09375 13.6562 5.75 13.9375 5.46875C14.2188 5.15625 14.5781 5 15.0156 5C15.4531 5 15.8125 5.15625 16.0938 5.46875C16.375 5.75 16.5156 6.09375 16.5156 6.5V7.20312C17.9219 7.54688 19.0156 8.29688 19.7969 9.45312C20.6094 10.6094 21.0156 11.9688 21.0156 13.5312V18.5ZM16.4219 23.9375C16.0156 24.3125 15.5469 24.5 15.0156 24.5C14.4844 24.5 14.0156 24.3125 13.6094 23.9375C13.2031 23.5312 13 23.0625 13 22.5312H17.0312C17.0312 23.0625 16.8281 23.5312 16.4219 23.9375Z" fill="#999999"/>
</svg>
