<svg width="30" height="30" viewBox="0 0 30 30" fill="none" xmlns="http://www.w3.org/2000/svg">
<path d="M15.9688 11.5V9.53125H14V11.5H15.9688ZM15.9688 16V14.0312H14V16H15.9688ZM15.9688 20.5V18.5312H14V20.5H15.9688ZM24.9688 13C24.4375 13 23.9688 13.2031 23.5625 13.6094C23.1875 14.0156 23 14.4844 23 15.0156C23 15.5469 23.1875 16.0156 23.5625 16.4219C23.9688 16.8281 24.4375 17.0312 24.9688 17.0312V21.0156C24.9688 21.5469 24.7656 22.0156 24.3594 22.4219C23.9844 22.8281 23.5312 23.0312 23 23.0312H6.96875C6.4375 23.0312 5.96875 22.8281 5.5625 22.4219C5.1875 22.0156 5 21.5469 5 21.0156V17.0312C5.5625 17.0312 6.03125 16.8438 6.40625 16.4688C6.78125 16.0625 6.96875 15.5781 6.96875 15.0156C6.96875 14.4844 6.76562 14.0156 6.35938 13.6094C5.98438 13.2031 5.53125 13 5 13V9.01562C5 8.45312 5.1875 7.98438 5.5625 7.60938C5.96875 7.20312 6.4375 7 6.96875 7H23C23.5312 7 23.9844 7.20312 24.3594 7.60938C24.7656 7.98438 24.9688 8.45312 24.9688 9.01562V13Z" fill="#999999"/>
</svg>
