<svg width="30" height="30" viewBox="0 0 30 30" fill="none" xmlns="http://www.w3.org/2000/svg">
<path d="M5.10778 12.0499L14.1429 23.2662L10.0446 12.0499H5.10778Z" fill="#999999"/>
<path d="M10.85 12.0499L15.2163 24.0001L19.6684 12.0499H10.85Z" fill="#999999"/>
<path d="M16.1891 23.5558L25.4571 12.0499H20.4753L16.1891 23.5558Z" fill="#999999"/>
<path d="M21.9219 6H16.0772L20.0847 10.9323L21.9219 6Z" fill="#999999"/>
<path d="M19.4033 11.2932L15.2824 6.22179L11.1618 11.2932H19.4033Z" fill="#999999"/>
<path d="M14.488 6H8.63921L10.4537 10.9656L14.488 6Z" fill="#999999"/>
<path d="M8.0093 6.47894L5 11.2937H9.76822L8.0093 6.47894Z" fill="#999999"/>
<path d="M25.5652 11.2933L22.5529 6.4737L20.7569 11.2933H25.5652Z" fill="#999999"/>
</svg>
